# Blender v2.70 (sub 0) OBJ File: ''
# www.blender.org
mtllib sphere.mtl
o Icosphere
v 0.000000 -1.000000 0.000000
v 0.723607 -0.447220 0.525725
v -0.276388 -0.447220 0.850649
v -0.894426 -0.447216 0.000000
v -0.276388 -0.447220 -0.850649
v 0.723607 -0.447220 -0.525725
v 0.276388 0.447220 0.850649
v -0.723607 0.447220 0.525725
v -0.723607 0.447220 -0.525725
v 0.276388 0.447220 -0.850649
v 0.894426 0.447216 0.000000
v 0.000000 1.000000 0.000000
v -0.232822 -0.657519 0.716563
v -0.162456 -0.850654 0.499995
v -0.077607 -0.967950 0.238853
v 0.203181 -0.967950 0.147618
v 0.425323 -0.850654 0.309011
v 0.609547 -0.657519 0.442856
v 0.531941 -0.502302 0.681712
v 0.262869 -0.525738 0.809012
v -0.029639 -0.502302 0.864184
v 0.812729 -0.502301 -0.295238
v 0.850648 -0.525736 0.000000
v 0.812729 -0.502301 0.295238
v 0.203181 -0.967950 -0.147618
v 0.425323 -0.850654 -0.309011
v 0.609547 -0.657519 -0.442856
v -0.753442 -0.657515 0.000000
v -0.525730 -0.850652 0.000000
v -0.251147 -0.967949 0.000000
v -0.483971 -0.502302 0.716565
v -0.688189 -0.525736 0.499997
v -0.831051 -0.502299 0.238853
v -0.232822 -0.657519 -0.716563
v -0.162456 -0.850654 -0.499995
v -0.077607 -0.967950 -0.238853
v -0.831051 -0.502299 -0.238853
v -0.688189 -0.525736 -0.499997
v -0.483971 -0.502302 -0.716565
v -0.029639 -0.502302 -0.864184
v 0.262869 -0.525738 -0.809012
v 0.531941 -0.502302 -0.681712
v 0.956626 0.251149 0.147618
v 0.951058 0.000000 0.309013
v 0.860698 -0.251151 0.442858
v 0.860698 -0.251151 -0.442858
v 0.951058 0.000000 -0.309013
v 0.956626 0.251149 -0.147618
v 0.155215 0.251152 0.955422
v 0.000000 0.000000 1.000000
v -0.155215 -0.251152 0.955422
v 0.687159 -0.251152 0.681715
v 0.587786 0.000000 0.809017
v 0.436007 0.251152 0.864188
v -0.860698 0.251151 0.442858
v -0.951058 0.000000 0.309013
v -0.956626 -0.251149 0.147618
v -0.436007 -0.251152 0.864188
v -0.587786 0.000000 0.809017
v -0.687159 0.251152 0.681715
v -0.687159 0.251152 -0.681715
v -0.587786 0.000000 -0.809017
v -0.436007 -0.251152 -0.864188
v -0.956626 -0.251149 -0.147618
v -0.951058 0.000000 -0.309013
v -0.860698 0.251151 -0.442858
v 0.436007 0.251152 -0.864188
v 0.587786 0.000000 -0.809017
v 0.687159 -0.251152 -0.681715
v -0.155215 -0.251152 -0.955422
v 0.000000 0.000000 -1.000000
v 0.155215 0.251152 -0.955422
v 0.831051 0.502299 0.238853
v 0.688189 0.525736 0.499997
v 0.483971 0.502302 0.716565
v 0.029639 0.502302 0.864184
v -0.262869 0.525738 0.809012
v -0.531941 0.502302 0.681712
v -0.812729 0.502301 0.295238
v -0.850648 0.525736 0.000000
v -0.812729 0.502301 -0.295238
v -0.531941 0.502302 -0.681712
v -0.262869 0.525738 -0.809012
v 0.029639 0.502302 -0.864184
v 0.483971 0.502302 -0.716565
v 0.688189 0.525736 -0.499997
v 0.831051 0.502299 -0.238853
v 0.077607 0.967950 0.238853
v 0.162456 0.850654 0.499995
v 0.232822 0.657519 0.716563
v 0.753442 0.657515 0.000000
v 0.525730 0.850652 0.000000
v 0.251147 0.967949 0.000000
v -0.203181 0.967950 0.147618
v -0.425323 0.850654 0.309011
v -0.609547 0.657519 0.442856
v -0.203181 0.967950 -0.147618
v -0.425323 0.850654 -0.309011
v -0.609547 0.657519 -0.442856
v 0.077607 0.967950 -0.238853
v 0.162456 0.850654 -0.499995
v 0.232822 0.657519 -0.716563
v 0.052790 -0.723612 0.688185
v 0.138199 -0.894429 0.425321
v 0.361805 -0.723611 0.587779
v 0.670817 -0.723611 -0.162457
v 0.670818 -0.723610 0.162458
v 0.447211 -0.894428 0.000001
v -0.638195 -0.723609 0.262864
v -0.361801 -0.894428 0.262864
v -0.447211 -0.723610 0.525729
v -0.447211 -0.723612 -0.525727
v -0.361801 -0.894429 -0.262863
v -0.638195 -0.723609 -0.262863
v 0.361803 -0.723612 -0.587779
v 0.138197 -0.894429 -0.425321
v 0.052789 -0.723611 -0.688186
v 1.000000 0.000000 0.000000
v 0.947213 -0.276396 0.162458
v 0.947213 -0.276396 -0.162458
v 0.309017 0.000000 0.951056
v 0.138199 -0.276398 0.951055
v 0.447216 -0.276398 0.850648
v -0.809018 0.000000 0.587783
v -0.861803 -0.276396 0.425324
v -0.670819 -0.276397 0.688191
v -0.809018 0.000000 -0.587783
v -0.670819 -0.276397 -0.688191
v -0.861803 -0.276396 -0.425324
v 0.309017 0.000000 -0.951056
v 0.447216 -0.276398 -0.850648
v 0.138199 -0.276398 -0.951055
v 0.670820 0.276396 0.688190
v 0.809019 -0.000002 0.587783
v 0.861804 0.276394 0.425323
v -0.447216 0.276397 0.850648
v -0.309017 -0.000001 0.951056
v -0.138199 0.276397 0.951055
v -0.947213 0.276396 -0.162458
v -1.000000 0.000001 0.000000
v -0.947213 0.276397 0.162458
v -0.138199 0.276397 -0.951055
v -0.309016 0.000000 -0.951057
v -0.447215 0.276397 -0.850649
v 0.861804 0.276396 -0.425322
v 0.809019 0.000000 -0.587782
v 0.670821 0.276397 -0.688189
v 0.361800 0.894429 0.262863
v 0.447209 0.723612 0.525728
v 0.638194 0.723610 0.262864
v -0.138197 0.894430 0.425319
v -0.361804 0.723612 0.587778
v -0.052790 0.723612 0.688185
v -0.447210 0.894429 0.000000
v -0.670817 0.723611 -0.162457
v -0.670817 0.723611 0.162457
v -0.138197 0.894430 -0.425319
v -0.052790 0.723612 -0.688185
v -0.361804 0.723612 -0.587778
v 0.361800 0.894429 -0.262863
v 0.638194 0.723610 -0.262864
v 0.447209 0.723612 -0.525728
usemtl None
s off
f 1 16 15
f 2 18 24
f 1 15 30
f 1 30 36
f 1 36 25
f 2 24 45
f 3 21 51
f 4 33 57
f 5 39 63
f 6 42 69
f 2 45 52
f 3 51 58
f 4 57 64
f 5 63 70
f 6 69 46
f 7 75 90
f 8 78 96
f 9 81 99
f 10 84 102
f 11 87 91
f 13 21 3
f 14 103 13
f 15 104 14
f 13 103 21
f 103 20 21
f 14 104 103
f 104 105 103
f 103 105 20
f 105 19 20
f 15 16 104
f 16 17 104
f 104 17 105
f 17 18 105
f 105 18 19
f 18 2 19
f 22 27 6
f 23 106 22
f 24 107 23
f 22 106 27
f 106 26 27
f 23 107 106
f 107 108 106
f 106 108 26
f 108 25 26
f 24 18 107
f 18 17 107
f 107 17 108
f 17 16 108
f 108 16 25
f 16 1 25
f 28 33 4
f 29 109 28
f 30 110 29
f 28 109 33
f 109 32 33
f 29 110 109
f 110 111 109
f 109 111 32
f 111 31 32
f 30 15 110
f 15 14 110
f 110 14 111
f 14 13 111
f 111 13 31
f 13 3 31
f 34 39 5
f 35 112 34
f 36 113 35
f 34 112 39
f 112 38 39
f 35 113 112
f 113 114 112
f 112 114 38
f 114 37 38
f 36 30 113
f 30 29 113
f 113 29 114
f 29 28 114
f 114 28 37
f 28 4 37
f 27 42 6
f 26 115 27
f 25 116 26
f 27 115 42
f 115 41 42
f 26 116 115
f 116 117 115
f 115 117 41
f 117 40 41
f 25 36 116
f 36 35 116
f 116 35 117
f 35 34 117
f 117 34 40
f 34 5 40
f 43 48 11
f 44 118 43
f 45 119 44
f 43 118 48
f 118 47 48
f 44 119 118
f 119 120 118
f 118 120 47
f 120 46 47
f 45 24 119
f 24 23 119
f 119 23 120
f 23 22 120
f 120 22 46
f 22 6 46
f 49 54 7
f 50 121 49
f 51 122 50
f 49 121 54
f 121 53 54
f 50 122 121
f 122 123 121
f 121 123 53
f 123 52 53
f 51 21 122
f 21 20 122
f 122 20 123
f 20 19 123
f 123 19 52
f 19 2 52
f 55 60 8
f 56 124 55
f 57 125 56
f 55 124 60
f 124 59 60
f 56 125 124
f 125 126 124
f 124 126 59
f 126 58 59
f 57 33 125
f 33 32 125
f 125 32 126
f 32 31 126
f 126 31 58
f 31 3 58
f 61 66 9
f 62 127 61
f 63 128 62
f 61 127 66
f 127 65 66
f 62 128 127
f 128 129 127
f 127 129 65
f 129 64 65
f 63 39 128
f 39 38 128
f 128 38 129
f 38 37 129
f 129 37 64
f 37 4 64
f 67 72 10
f 68 130 67
f 69 131 68
f 67 130 72
f 130 71 72
f 68 131 130
f 131 132 130
f 130 132 71
f 132 70 71
f 69 42 131
f 42 41 131
f 131 41 132
f 41 40 132
f 132 40 70
f 40 5 70
f 54 75 7
f 53 133 54
f 52 134 53
f 54 133 75
f 133 74 75
f 53 134 133
f 134 135 133
f 133 135 74
f 135 73 74
f 52 45 134
f 45 44 134
f 134 44 135
f 44 43 135
f 135 43 73
f 43 11 73
f 60 78 8
f 59 136 60
f 58 137 59
f 60 136 78
f 136 77 78
f 59 137 136
f 137 138 136
f 136 138 77
f 138 76 77
f 58 51 137
f 51 50 137
f 137 50 138
f 50 49 138
f 138 49 76
f 49 7 76
f 66 81 9
f 65 139 66
f 64 140 65
f 66 139 81
f 139 80 81
f 65 140 139
f 140 141 139
f 139 141 80
f 141 79 80
f 64 57 140
f 57 56 140
f 140 56 141
f 56 55 141
f 141 55 79
f 55 8 79
f 72 84 10
f 71 142 72
f 70 143 71
f 72 142 84
f 142 83 84
f 71 143 142
f 143 144 142
f 142 144 83
f 144 82 83
f 70 63 143
f 63 62 143
f 143 62 144
f 62 61 144
f 144 61 82
f 61 9 82
f 48 87 11
f 47 145 48
f 46 146 47
f 48 145 87
f 145 86 87
f 47 146 145
f 146 147 145
f 145 147 86
f 147 85 86
f 46 69 146
f 69 68 146
f 146 68 147
f 68 67 147
f 147 67 85
f 67 10 85
f 88 93 12
f 89 148 88
f 90 149 89
f 88 148 93
f 148 92 93
f 89 149 148
f 149 150 148
f 148 150 92
f 150 91 92
f 90 75 149
f 75 74 149
f 149 74 150
f 74 73 150
f 150 73 91
f 73 11 91
f 94 88 12
f 95 151 94
f 96 152 95
f 94 151 88
f 151 89 88
f 95 152 151
f 152 153 151
f 151 153 89
f 153 90 89
f 96 78 152
f 78 77 152
f 152 77 153
f 77 76 153
f 153 76 90
f 76 7 90
f 97 94 12
f 98 154 97
f 99 155 98
f 97 154 94
f 154 95 94
f 98 155 154
f 155 156 154
f 154 156 95
f 156 96 95
f 99 81 155
f 81 80 155
f 155 80 156
f 80 79 156
f 156 79 96
f 79 8 96
f 100 97 12
f 101 157 100
f 102 158 101
f 100 157 97
f 157 98 97
f 101 158 157
f 158 159 157
f 157 159 98
f 159 99 98
f 102 84 158
f 84 83 158
f 158 83 159
f 83 82 159
f 159 82 99
f 82 9 99
f 93 100 12
f 92 160 93
f 91 161 92
f 93 160 100
f 160 101 100
f 92 161 160
f 161 162 160
f 160 162 101
f 162 102 101
f 91 87 161
f 87 86 161
f 161 86 162
f 86 85 162
f 162 85 102
f 85 10 102
